<?xml version="1.0" encoding="UTF-8" standalone="no"?>
<!-- Created with Inkscape (http://www.inkscape.org/) -->

<svg
   xmlns:dc="http://purl.org/dc/elements/1.1/"
   xmlns:cc="http://creativecommons.org/ns#"
   xmlns:rdf="http://www.w3.org/1999/02/22-rdf-syntax-ns#"
   xmlns:svg="http://www.w3.org/2000/svg"
   xmlns="http://www.w3.org/2000/svg"
   xmlns:sodipodi="http://sodipodi.sourceforge.net/DTD/sodipodi-0.dtd"
   xmlns:inkscape="http://www.inkscape.org/namespaces/inkscape"
   width="61.074406mm"
   height="61.074406mm"
   viewBox="0 0 61.074406 61.074406"
   version="1.1"
   id="svg8"
   inkscape:version="0.92.3 (2405546, 2018-03-11)"
   sodipodi:docname="logo_small.svg">
  <defs
     id="defs2" />
  <sodipodi:namedview
     id="base"
     pagecolor="#ffffff"
     bordercolor="#666666"
     borderopacity="1.0"
     inkscape:pageopacity="0.0"
     inkscape:pageshadow="2"
     inkscape:zoom="0.49497475"
     inkscape:cx="257.58899"
     inkscape:cy="247.45039"
     inkscape:document-units="mm"
     inkscape:current-layer="g7597"
     showgrid="false"
     inkscape:window-width="1920"
     inkscape:window-height="1052"
     inkscape:window-x="0"
     inkscape:window-y="0"
     inkscape:window-maximized="1"
     fit-margin-top="0"
     fit-margin-left="0"
     fit-margin-right="0"
     fit-margin-bottom="0">
    <sodipodi:guide
       position="-23.813985,-219.00584"
       orientation="0,793.70079"
       id="guide8563"
       inkscape:locked="false" />
    <sodipodi:guide
       position="186.18602,-219.00584"
       orientation="-1122.5197,0"
       id="guide8565"
       inkscape:locked="false" />
    <sodipodi:guide
       position="186.18602,77.994165"
       orientation="0,-793.70079"
       id="guide8567"
       inkscape:locked="false" />
    <sodipodi:guide
       position="-23.813985,77.994165"
       orientation="1122.5197,0"
       id="guide8569"
       inkscape:locked="false" />
  </sodipodi:namedview>
  <metadata
     id="metadata5">
    <rdf:RDF>
      <cc:Work
         rdf:about="">
        <dc:format>image/svg+xml</dc:format>
        <dc:type
           rdf:resource="http://purl.org/dc/dcmitype/StillImage" />
        <dc:title></dc:title>
      </cc:Work>
    </rdf:RDF>
  </metadata>
  <g
     inkscape:label="Layer 1"
     inkscape:groupmode="layer"
     id="layer1"
     transform="translate(-23.813984,-16.919759)">
    <g
       id="g7597"
       transform="translate(-97.517862,-183.96415)">
      <circle
         r="28.537203"
         cy="231.42111"
         cx="151.86905"
         id="path7513"
         style="color:#000000;clip-rule:nonzero;display:inline;overflow:visible;visibility:visible;opacity:1;isolation:auto;mix-blend-mode:normal;color-interpolation:sRGB;color-interpolation-filters:linearRGB;solid-color:#000000;solid-opacity:1;fill:#353945;fill-opacity:0.94117647;fill-rule:nonzero;stroke:#5a96ec;stroke-width:4;stroke-linecap:butt;stroke-linejoin:round;stroke-miterlimit:4;stroke-dasharray:none;stroke-dashoffset:0;stroke-opacity:1;paint-order:normal;color-rendering:auto;image-rendering:auto;shape-rendering:auto;text-rendering:auto;enable-background:accumulate" />
      <path
         d="m 172.10645,231.85791 a 20.238117,20.238117 0 0 1 -20.11837,20.23776 20.238117,20.238117 0 0 1 -20.35645,-19.99827 l 20.2367,-0.23949 z"
         sodipodi:end="3.1297589"
         sodipodi:start="0"
         sodipodi:ry="20.238117"
         sodipodi:rx="20.238117"
         sodipodi:cy="231.85791"
         sodipodi:cx="151.86833"
         sodipodi:type="arc"
         id="path7515"
         style="color:#000000;clip-rule:nonzero;display:inline;overflow:visible;visibility:visible;opacity:1;isolation:auto;mix-blend-mode:normal;color-interpolation:sRGB;color-interpolation-filters:linearRGB;solid-color:#000000;solid-opacity:1;fill:#5a96ec;fill-opacity:1;fill-rule:nonzero;stroke:#5a96ec;stroke-width:1.99999988;stroke-linecap:butt;stroke-linejoin:miter;stroke-miterlimit:4;stroke-dasharray:none;stroke-dashoffset:0;stroke-opacity:1;paint-order:normal;color-rendering:auto;image-rendering:auto;shape-rendering:auto;text-rendering:auto;enable-background:accumulate" />
      <path
         transform="rotate(-1.9402816)"
         sodipodi:open="true"
         d="m 152.32988,244.32527 a 8.8814764,6.5519257 0 0 1 -9.36403,5.62275 8.8814764,6.5519257 0 0 1 -8.31114,-6.4609"
         sodipodi:end="3.1297593"
         sodipodi:start="0.14021541"
         sodipodi:ry="6.5519257"
         sodipodi:rx="8.8814764"
         sodipodi:cy="243.40959"
         sodipodi:cx="143.53557"
         sodipodi:type="arc"
         id="path7519"
         style="color:#000000;clip-rule:nonzero;display:inline;overflow:visible;visibility:visible;opacity:1;isolation:auto;mix-blend-mode:normal;color-interpolation:sRGB;color-interpolation-filters:linearRGB;solid-color:#000000;solid-opacity:1;fill:none;fill-opacity:1;fill-rule:nonzero;stroke:#404552;stroke-width:4.30000019;stroke-linecap:butt;stroke-linejoin:bevel;stroke-miterlimit:4;stroke-dasharray:none;stroke-dashoffset:0;stroke-opacity:1;paint-order:normal;color-rendering:auto;image-rendering:auto;shape-rendering:auto;text-rendering:auto;enable-background:accumulate" />
    </g>
  </g>
</svg>
